<?xml version="1.0" encoding="utf-8"?>
<!-- Generator: Adobe Illustrator 16.0.0, SVG Export Plug-In . SVG Version: 6.00 Build 0)  -->
<!DOCTYPE svg PUBLIC "-//W3C//DTD SVG 1.1//EN" "http://www.w3.org/Graphics/SVG/1.1/DTD/svg11.dtd">
<svg version="1.1" id="Layer_1" xmlns="http://www.w3.org/2000/svg" xmlns:xlink="http://www.w3.org/1999/xlink" x="0px" y="0px"
	 width="48px" height="48px" viewBox="0 0 48 48" enable-background="new 0 0 48 48" xml:space="preserve">
<title>Asset 2</title>
<g id="Layer_2">
	<g id="Layer_1-2">
		<polygon points="8.827,20.275 10.752,15.125 12.716,20.24 17.829,22.201 12.659,24.107 10.752,29.277 8.881,24.072 3.675,22.201 
					"/>
		<polygon points="17.763,4.482 19.241,0.527 20.75,4.455 24.677,5.964 20.706,7.428 19.241,11.4 17.804,7.4 13.805,5.964 		"/>
		<g id="t8SNAv.tif">
			<path d="M23.573,47.473c-5.347,0.03-10.553-1.705-14.812-4.937C4.342,39.2,1.161,34.399,0.032,29.37
				c-0.145-0.59,0.215-1.184,0.805-1.326c0.398-0.099,0.818,0.035,1.088,0.345c3.979,4.351,8.908,6.53,14.633,6.473
				c4.992-0.047,9.325-1.794,12.891-5.194c3.906-3.735,5.787-8.316,5.596-13.615c-0.188-5.211-2.355-9.526-6.625-13.204
				c-0.469-0.383-0.539-1.074-0.156-1.544c0.266-0.324,0.688-0.47,1.096-0.376c4.73,0.979,9.387,3.717,12.771,7.516
				c3.84,4.26,5.938,9.812,5.869,15.547c-0.031,5.958-2.361,11.677-6.506,15.96c-4.068,4.227-9.52,6.85-15.359,7.392
				C25.237,47.429,24.389,47.473,23.573,47.473z M3.569,32.861c1.514,3.122,3.75,5.839,6.521,7.926
				c3.148,2.381,8.447,5.07,15.815,4.389c5.318-0.491,10.283-2.878,13.988-6.726c3.754-3.881,5.863-9.059,5.895-14.456
				c0.059-5.19-1.838-10.215-5.313-14.072c-2.094-2.34-4.654-4.213-7.518-5.502c2.645,3.283,4.143,7.344,4.262,11.559
				c0.217,5.952-1.893,11.092-6.27,15.28c-3.973,3.799-8.808,5.761-14.375,5.805C11.679,37.107,7.319,35.695,3.569,32.861z"/>
		</g>
	</g>
</g>
</svg>
