<?xml version="1.0" encoding="utf-8"?>
<!-- Generator: Adobe Illustrator 16.0.0, SVG Export Plug-In . SVG Version: 6.00 Build 0)  -->
<!DOCTYPE svg PUBLIC "-//W3C//DTD SVG 1.1//EN" "http://www.w3.org/Graphics/SVG/1.1/DTD/svg11.dtd">
<svg version="1.1" id="Layer_1" xmlns="http://www.w3.org/2000/svg" xmlns:xlink="http://www.w3.org/1999/xlink" x="0px" y="0px"
	 width="48px" height="48px" viewBox="0 0 48 48" enable-background="new 0 0 48 48" xml:space="preserve">
<title>Phone</title>
<g id="Layer_2">
	<g id="Capa_1">
		<path d="M47.978,37.873c0.102,0.78-0.137,1.458-0.713,2.032l-6.758,6.705c-0.338,0.363-0.744,0.657-1.193,0.863
			c-0.457,0.227-0.943,0.381-1.447,0.458c-0.033,0-0.137,0.009-0.307,0.024c-0.17,0.018-0.389,0.026-0.656,0.026
			c-0.645,0-1.686-0.11-3.125-0.331s-3.201-0.762-5.289-1.623c-2.082-0.862-4.445-2.158-7.088-3.888
			c-2.643-1.73-5.455-4.102-8.438-7.113c-2.373-2.338-4.338-4.573-5.896-6.707s-2.812-4.107-3.757-5.92
			c-0.949-1.813-1.66-3.456-2.135-4.93c-0.473-1.473-0.795-2.744-0.965-3.811s-0.238-1.904-0.203-2.516
			c0.033-0.608,0.051-0.948,0.051-1.016C0.136,9.625,0.29,9.137,0.518,8.68c0.206-0.449,0.5-0.854,0.862-1.192l6.758-6.758
			c0.476-0.476,1.018-0.712,1.627-0.712c0.421-0.006,0.832,0.129,1.168,0.382c0.343,0.257,0.636,0.575,0.865,0.938l5.438,10.313
			c0.307,0.541,0.396,1.177,0.254,1.781c-0.12,0.615-0.421,1.182-0.863,1.625l-2.49,2.492c-0.084,0.097-0.145,0.209-0.178,0.33
			c-0.045,0.123-0.07,0.25-0.076,0.381c0.135,0.711,0.439,1.523,0.914,2.438c0.406,0.812,1.033,1.804,1.879,2.974
			c0.848,1.168,2.051,2.516,3.608,4.039c1.524,1.559,2.88,2.771,4.065,3.635c1.186,0.863,2.176,1.499,2.973,1.904
			c0.797,0.406,1.406,0.652,1.828,0.736l0.637,0.127c0.111-0.01,0.225-0.035,0.33-0.076c0.123-0.034,0.234-0.095,0.33-0.178
			l2.896-2.948c0.582-0.531,1.346-0.821,2.135-0.813c0.576,0,1.033,0.102,1.371,0.306h0.051l9.809,5.795
			C47.419,36.641,47.843,37.199,47.978,37.873z"/>
	</g>
</g>
</svg>
